[
  "AAPL",
  "ABBV",
  "ABT",
  "ACN",
  "AGN",
  "AIG",
  "ALL",
  "AMGN",
  "AMZN",
  "AXP",
  "BA",
  "BAC",
  "BIIB",
  "BK",
  "BKNG",
  "BLK",
  "BMY",
  "C",
  "CAT",
  "CELG",
  "CL",
  "CMCSA",
  "COF",
  "COP",
  "COST",
  "CSCO",
  "CVS",
  "CVX",
  "DHR",
  "DIS",
  "DUK",
  "DWDP",
  "EMR",
  "EXC",
  "F",
  "FB",
  "FDX",
  "FOXA",
  "GD",
  "GE",
  "GILD",
  "GM",
  "GOOG",
  "GS",
  "HAL",
  "HD",
  "HON",
  "CHTR",
  "IBM",
  "INTC",
  "JNJ",
  "JPM",
  "KHC",
  "KMI",
  "KO",
  "LLY",
  "LMT",
  "LOW",
  "MA",
  "MCD",
  "MDLZ",
  "MDT",
  "MET",
  "MMM",
  "MO",
  "MRK",
  "MS",
  "MSFT",
  "NEE",
  "NFLX",
  "NKE",
  "NVDA",
  "ORCL",
  "OXY",
  "PEP",
  "PFE",
  "PG",
  "PM",
  "PYPL",
  "QCOM",
  "RTN",
  "SBUX",
  "SLB",
  "SO",
  "SPG",
  "T",
  "TGT",
  "TXN",
  "UNH",
  "UNP",
  "UPS",
  "USB",
  "UTX",
  "V",
  "VZ",
  "WBA",
  "WFC",
  "WMT",
  "XOM"
]